{
    "comps": [
        {
            "id": "CDF_Junior_2021_club",
            "name": "Championnat de France 2021 Catégorie Junior Classe Club et Classe Standard+15m+Biplace20m",
            "short": "Championnat de France junior classe club",
            "task": "https://www.soaringspot.com/en_gb/cdf2021-fontenay/results/club",
            "colour": "#BF211E"
        }
    ],
    "gliders": "https://gitlab.com/leojullerot/cdfj-2021/-/raw/main/glidersclub.json"
}
